Exploratory analysis
…
#Applying the model to unseen test data
predict(model_fit2, test_data)

# A tibble: 2,626 × 1
   .pred
   <dbl>
 1  7.36
 2  6.82
 3  7.69
 4  7.62
 5  7.84
 6  7.98
 7  8.10
 8  7.38
 9  7.88
10  7.74
# … with 2,616 more rows
…
